<?xml version="1.0" encoding="UTF-8" standalone="no"?>
<!-- Created with Inkscape (http://www.inkscape.org/) -->

<svg
     xmlns:dc="http://purl.org/dc/elements/1.1/"
     xmlns:cc="http://creativecommons.org/ns#"
     xmlns:rdf="http://www.w3.org/1999/02/22-rdf-syntax-ns#"
     xmlns:svg="http://www.w3.org/2000/svg"
     xmlns="http://www.w3.org/2000/svg"
     xmlns:sodipodi="http://sodipodi.sourceforge.net/DTD/sodipodi-0.dtd"
     xmlns:inkscape="http://www.inkscape.org/namespaces/inkscape"
     width="512"
     height="512"
     viewBox="0 0 511.99999 511.99999"
     id="svg2"
     version="1.1"
     inkscape:version="0.91 r13725"
     sodipodi:docname="inspoesie.svg"
     inkscape:export-filename="/Users/ryuutei/512.png"
     inkscape:export-xdpi="90"
     inkscape:export-ydpi="90">
    <defs
         id="defs4" />
    <sodipodi:namedview
         id="base"
         pagecolor="#ffffff"
         bordercolor="#666666"
         borderopacity="1.0"
         inkscape:pageopacity="0.0"
         inkscape:pageshadow="2"
         inkscape:zoom="0.46915486"
         inkscape:cx="332.08378"
         inkscape:cy="154.83034"
         inkscape:document-units="px"
         inkscape:current-layer="layer1"
         showgrid="false"
         units="px"
         borderlayer="false"
         inkscape:snap-page="true" />
    <metadata
         id="metadata7">
        <rdf:RDF>
            <cc:Work
                 rdf:about="">
                <dc:format>image/svg+xml</dc:format>
                <dc:type
                     rdf:resource="http://purl.org/dc/dcmitype/StillImage" />
                <dc:title></dc:title>
                <dc:creator>
                    <cc:Agent>
                        <dc:title>Sebastien Blanc Ryuutei</dc:title>
                    </cc:Agent>
                </dc:creator>
                <dc:publisher>
                    <cc:Agent>
                        <dc:title>Sebastien Blanc Ryuutei</dc:title>
                    </cc:Agent>
                </dc:publisher>
                <dc:date>2015-</dc:date>
            </cc:Work>
        </rdf:RDF>
    </metadata>
    <g
         inkscape:label="Layer 1"
         inkscape:groupmode="layer"
         id="layer1"
         transform="translate(0,-540.36219)">
        <path
             style="opacity:1;fill:#008509;fill-opacity:1;stroke:#057b00;stroke-width:21;stroke-linecap:square;stroke-linejoin:miter;stroke-miterlimit:3.9000001;stroke-dasharray:none;stroke-dashoffset:0;stroke-opacity:1"
             d="M 244.74956,699.84883 C 226.61636,702.847 208.35701,721.19201 213.45011,740.53746 220.62021,754.31425 237.24104,760.50677 251.85147,762.35389 250.91857,769.33503 251.65211,786.57379 246.30352,797.392 213.54906,799.01476 176.39237,790.62546 157.13576,761.64138 148.70861,752.86455 147.48113,731.47237 141.06253,727.45266 139.87764,735.21793 124.48497,731.86064 129.40552,739.95561 136.09085,765.34463 153.07105,788.7297 178.24262,798.1945 199.37784,806.54474 222.59921,807.87191 245.04639,806.02823 238.72577,848.84774 219.39257,889.48373 220.78916,933.44561 218.62007,944.00375 228.23425,946.4431 234.51159,930.90681 235.21531,913.9672 235.51094,895.55405 239.88692,878.52705 245.7895,853.72125 253.9322,829.4562 258.49069,804.32805 286.84727,800.00602 314.35336,786.11731 333.60374,764.74335 347.17547,746.99155 359.30696,726.50533 362.04889,703.99997 L 346.55739,711.89631 C 344.31601,734.67978 331.72922,755.45194 317.28145,772.72392 303.52071,789.95664 280.5049,793.96679 259.8744,796.45353 263.01929,780.31157 257.20512,763.10426 275.4445,749.36547 289.22721,738.98366 286.84604,711.8489 268.87946,705.07812 261.45722,698.32472 255.33877,705.28543 249.11316,709.46171 243.74536,714.62196 267.54021,715.76359 269.94029,727.76676 271.72674,736.70111 267.60088,761.32894 250.59594,754.76223 234.75665,748.64564 213.09327,732.30269 234.1229,710.41438 240.24856,717.48553 246.26498,707.90776 252.38763,705.41267 257.99592,703.82548 246.33558,699.75108 244.74956,699.84883 Z M 239.41768,935.64785 224.79919,945.1789 C 248.69081,959.18357 272.35408,974.33801 290.55765,995.57202 300.34434,1006.8451 311.16348,1017.5848 318.18687,1030.906 322.94257,1028.1444 327.69827,1025.3827 332.45398,1022.6212 319.99191,1002.361 302.83234,985.33155 285.96639,968.71132 272.08717,955.45517 254.93593,946.60248 239.41768,935.64785 Z M 233.54889,936.44885 C 225.2996,940.27527 216.0123,942.42034 210.44186,950.25068 187.82565,969.3792 168.50317,992.86132 154.34307,1018.8815 150.45421,1026.1312 143.82171,1045.146 156.83478,1034.8288 168.24558,1032.2245 163.32506,1018.0521 169.92463,1010.274 185.1618,982.64175 207.19067,959.20785 231.25051,939.05092 Z"
             id="path4193"
             inkscape:connector-curvature="0"
             sodipodi:nodetypes="ccccccccccccccccccsccssccccccccccccccccc" />
        <path
             sodipodi:type="star"
             style="opacity:1;fill:#ff9797;fill-opacity:1;stroke:none;stroke-width:7.99999952;stroke-linecap:square;stroke-linejoin:miter;stroke-miterlimit:8;stroke-dasharray:none;stroke-dashoffset:0;stroke-opacity:1"
             id="path4203"
             sodipodi:sides="8"
             sodipodi:cx="98.058437"
             sodipodi:cy="680.8536"
             sodipodi:r1="48.245285"
             sodipodi:r2="15.438491"
             sodipodi:arg1="0.45236989"
             sodipodi:arg2="0.84506897"
             inkscape:flatsided="false"
             inkscape:rounded="0"
             inkscape:randomized="0"
             d="M 141.45091,701.94151 108.30465,692.40183 113.83013,726.44811 97.137753,696.26459 76.970503,724.24605 86.510182,691.09979 52.463903,696.62527 82.64742,679.9329 54.665961,659.76565 87.812221,669.30532 82.28674,635.25905 98.979114,665.44256 119.14636,637.4611 109.60669,670.60736 143.65296,665.08188 113.46945,681.77426 Z" />
        <path
             sodipodi:type="star"
             style="opacity:1;fill:#97ffa6;fill-opacity:1;stroke:none;stroke-width:8;stroke-linecap:square;stroke-linejoin:miter;stroke-miterlimit:8;stroke-dasharray:none;stroke-dashoffset:0;stroke-opacity:1"
             id="path4212"
             sodipodi:sides="8"
             sodipodi:cx="226.40431"
             sodipodi:cy="630.92285"
             sodipodi:r1="66.032143"
             sodipodi:r2="21.130287"
             sodipodi:arg1="0.78539816"
             sodipodi:arg2="1.1780972"
             inkscape:flatsided="false"
             inkscape:rounded="0"
             inkscape:randomized="0"
             d="M 273.09609,677.61463 234.49052,650.44469 226.40431,696.95499 218.3181,650.44469 179.71254,677.61463 206.88247,639.00906 160.37217,630.92285 206.88247,622.83664 179.71254,584.23108 218.3181,611.40101 226.40431,564.89071 234.49052,611.40101 273.09609,584.23108 245.92615,622.83664 292.43645,630.92285 245.92615,639.00906 Z"
             transform="matrix(0.5,-0.8660254,0.8660254,0.5,-423.7869,494.63389)" />
        <path
             sodipodi:type="star"
             style="opacity:1;fill:#9897ff;fill-opacity:1;stroke:none;stroke-width:8;stroke-linecap:square;stroke-linejoin:miter;stroke-miterlimit:8;stroke-dasharray:none;stroke-dashoffset:0;stroke-opacity:1"
             id="path4214"
             sodipodi:sides="8"
             sodipodi:cx="395.3846"
             sodipodi:cy="645.39272"
             sodipodi:r1="66.60714"
             sodipodi:r2="21.314285"
             sodipodi:arg1="-0.78539816"
             sodipodi:arg2="-0.39269908"
             inkscape:flatsided="false"
             inkscape:rounded="0"
             inkscape:randomized="0"
             d="M 442.48297,598.29434 415.07644,637.23608 461.99175,645.3927 415.07644,653.54932 442.48297,692.49106 403.54124,665.08453 395.38461,711.99984 387.22799,665.08453 348.28625,692.49106 375.69278,653.54932 328.77747,645.3927 375.69278,637.23608 348.28625,598.29434 387.22799,625.70087 395.38461,578.78556 403.54124,625.70087 Z" />
    </g>
</svg>
